{
	"hiragana to rōmaji": {
		"#": {
			"display": true,
			"shuffle": true
		},
		"あ": "a",
		"い": "i",
		"う": "u",
		"え": "e",
		"お": "o",
		"か": "ka",
		"き": "ki",
		"く": "ku",
		"け": "ke",
		"こ": "ko",
		"さ": "sa",
		"し": ["si", "shi"],
		"す": "su",
		"せ": "se",
		"そ": "so",
		"た": "ta",
		"ち": ["ti", "chi"],
		"つ": ["tu", "tsu"],
		"て": "te",
		"と": "to"
	},
	"rōmaji to hiragana": {
		"#": {
			"display": true,
			"shuffle": true
		},
		"a": "あ",
		"i": "い",
		"u": "う",
		"e": "え",
		"o": "お",
		"ka": "か",
		"ki": "き",
		"ku": "く",
		"ke": "け",
		"ko": "こ",
		"sa": "さ",
		"si": "し",
		"su": "す",
		"se": "せ",
		"so": "そ",
		"ta": "た",
		"ti": "ち",
		"tu": "つ",
		"te": "て",
		"to": "と"
	}
}
